digraph G {

node[fontname="Hershey-Noailles-help-me"]

//labels
GS [
label="9. Algorithmic procedures",
style=bold,
shape=rectangle,
penwidth="1pt"
]

SU [label="setup()"]
ST [label="start()"]
DiC [label="Discussion in class"]
EiC [label="Exercise in class"]
FC [label="Flowcharts"]
EiC1 [label="Exercise in class"]
AM [label="Flowcharts\nas an artistic medium"]
MW [label="While()"]
MX [label="MiniX: \nFlowcharts"]
RR [label="Required reading"]
FR [label="Further reading"]
Notes [label="Notes"]

//rank
{rank = same; RR, SU}

//graph
GS -> SU -> ST;
GS -> MX[minlen=3];
ST -> DiC -> EiC;
ST -> FC ;
FC -> EiC1 -> AM;
MW -> Notes;
MW -> FC[dir=both]
SU -> MW [dir=both];
RR -> GS, SU, MW;
FC -> MX;
RR -> FR;
}
